<?xml version="1.0" standalone="no"?>
<!DOCTYPE svg PUBLIC "-//W3C//DTD SVG 20010904//EN"
 "http://www.w3.org/TR/2001/REC-SVG-20010904/DTD/svg10.dtd">
<svg version="1.0" xmlns="http://www.w3.org/2000/svg"
 height="60px" viewBox="0 0 142.000000 173.000000"
 preserveAspectRatio="xMidYMid meet">
<metadata>
Created by potrace 1.15, written by Peter Selinger 2001-2017
</metadata>
<g transform="translate(0.000000,173.000000) scale(0.100000,-0.100000)" stroke="none">
<path fill-opacity=".54" fill="#000" fill-rule="evenodd" d="M10 1714 c0 -5 30 -147 67 -316 l67 -307 115 -55 c202 -95 411 -199
407 -203 -1 -2 -107 25 -234 61 -128 35 -232 62 -232 60 0 -2 52 -92 116 -199
76 -127 122 -195 133 -195 9 0 68 14 131 30 114 29 139 31 103 10 -10 -6 -67
-41 -128 -78 l-109 -67 -123 -195 c-68 -107 -130 -208 -139 -224 l-16 -28 59
31 c32 17 264 145 515 284 l458 252 0 210 0 210 100 153 c55 84 100 155 100
156 0 9 -387 -76 -395 -87 -5 -7 -39 -50 -73 -95 l-64 -83 -41 34 c-23 18
-208 166 -412 327 -203 161 -378 300 -387 308 -10 8 -18 11 -18 6z"/>
</g>
</svg>
